<svg width="92" height="76" viewBox="0 0 92 76" xmlns="http://www.w3.org/2000/svg" xmlns:xlink="http://www.w3.org/1999/xlink"><g transform="translate(0 0)">
<rect width="80" height="36" rx="4" transform="translate(0 0)" fill="#1565c0"></rect><text transform="translate(20 23)" fill="white" font-family="DejaVu Sans,Verdana,Geneva,sans-serif" font-size="14" ><tspan x="0" y="0">DEMO</tspan></text>
</g></svg>
