go 1.19

module gitlab.com/kofoednielsen/solar-controller

require (
	github.com/eclipse/paho.mqtt.golang v1.4.2 // indirect
	github.com/gorilla/websocket v1.5.0 // indirect
	github.com/robfig/cron/v3 v3.0.1 // indirect
	golang.org/x/net v0.7.0 // indirect
	golang.org/x/sync v0.0.0-20210220032951-036812b2e83c // indirect
)
